<?xml version="1.0" encoding="UTF-8"?>
<svg width="13px" height="13px">
    <polygon id="Path" fill="#000000" points="13 1.44737829 11.5526217 0 6.5 5.05262171 1.44737829 0 1.80399967e-16 1.44737829 5.05262171 6.5 0 11.5526217 1.44737829 13 6.5 7.94737829 11.5526217 13 13 11.5526217 7.94737829 6.5"/>
</svg>
